<svg width="32" height="32" viewBox="0 0 32 32" fill="none" xmlns="http://www.w3.org/2000/svg">
<path d="M26.6213 5.56381C24.1783 2.02819 20.3066 0 15.9997 0C11.6928 0 7.82107 2.02819 5.37813 5.56381C2.9472 9.08156 2.38589 13.5351 3.87363 17.4698C4.27157 18.5443 4.90413 19.5882 5.74926 20.5665L15.1479 31.6061C15.3604 31.856 15.6719 32 15.9997 32C16.3275 32 16.6389 31.8561 16.8515 31.6061L26.2475 20.5695C27.0964 19.5856 27.7281 18.5428 28.1228 17.4769C29.6135 13.5351 29.0522 9.08156 26.6213 5.56381ZM26.0275 16.6933C25.7232 17.5157 25.2264 18.3288 24.5517 19.1108C24.5498 19.1127 24.5479 19.1146 24.5464 19.1168L15.9997 29.1554L7.4477 19.1105C6.77338 18.3291 6.27657 17.5161 5.96926 16.6859C4.73888 13.4318 5.20582 9.74956 7.2187 6.83638C9.23788 3.91388 12.4386 2.23775 15.9997 2.23775C19.5607 2.23775 22.7611 3.91381 24.7803 6.83638C26.7936 9.74956 27.2609 13.4318 26.0275 16.6933Z" fill="#25B29D"/>
<path d="M16.0001 6.64062C12.5454 6.64062 9.73438 9.45125 9.73438 12.9064C9.73438 16.3615 12.545 19.1721 16.0001 19.1721C19.4552 19.1721 22.2659 16.3615 22.2659 12.9064C22.2659 9.45162 19.4549 6.64062 16.0001 6.64062ZM16.0001 16.9343C13.7791 16.9343 11.9721 15.1273 11.9721 12.9063C11.9721 10.6853 13.7791 8.87831 16.0001 8.87831C18.2211 8.87831 20.0281 10.6853 20.0281 12.9063C20.0281 15.1273 18.2211 16.9343 16.0001 16.9343Z" fill="#25B29D"/>
</svg>
