<svg width="32" height="32" viewBox="0 0 32 32" fill="none" xmlns="http://www.w3.org/2000/svg">
<path fill-rule="evenodd" clip-rule="evenodd" d="M8 10.6667C8 9.1963 9.19624 8 10.6667 8C12.1371 8 13.3333 9.1963 13.3333 10.6667C13.3333 12.137 12.137 13.3333 10.6667 13.3333C9.1963 13.3333 8 12.137 8 10.6667ZM9.77778 10.6666C9.77778 11.1567 10.1765 11.5555 10.6666 11.5555C11.1568 11.5555 11.5555 11.1567 11.5555 10.6666C11.5555 10.1765 11.1567 9.77778 10.6666 9.77778C10.1765 9.77778 9.77778 10.1765 9.77778 10.6666Z" fill="#25B29D"/>
<path fill-rule="evenodd" clip-rule="evenodd" d="M3.55566 15.9987C3.55566 14.5283 4.75191 13.332 6.22233 13.332C7.69276 13.332 8.88906 14.5283 8.889 15.9987C8.889 17.4691 7.6927 18.6654 6.22233 18.6654C4.75197 18.6654 3.55566 17.4691 3.55566 15.9987ZM5.33333 15.999C5.33333 16.4891 5.73204 16.8879 6.2222 16.8879C6.71236 16.8879 7.11113 16.4891 7.11107 15.999C7.11107 15.5089 6.7123 15.1101 6.2222 15.1101C5.7321 15.1101 5.33333 15.5088 5.33333 15.999Z" fill="#25B29D"/>
<path fill-rule="evenodd" clip-rule="evenodd" d="M6.22266 23.112C6.22266 21.6416 7.4189 20.4453 8.88932 20.4453C10.3597 20.4453 11.556 21.6416 11.556 23.112C11.556 24.5823 10.3597 25.7786 8.88932 25.7786C7.41896 25.7786 6.22266 24.5824 6.22266 23.112ZM8 23.1121C8 23.6022 8.39871 24.0009 8.88887 24.0009C9.37903 24.0009 9.7778 23.6022 9.77774 23.1121C9.77774 22.622 9.37897 22.2232 8.88887 22.2232C8.39877 22.2232 8 22.6219 8 23.1121Z" fill="#25B29D"/>
<path fill-rule="evenodd" clip-rule="evenodd" d="M30.6649 4.45137C31.6054 3.07237 32.5617 1.36619 31.6 0.404879C31.1461 -0.0488073 30.4633 -0.12162 29.5702 0.188505C28.9985 0.387004 28.3044 0.747629 27.5074 1.26038C25.866 2.31625 23.737 4.06143 21.7727 6.14449C18.171 3.79712 13.7083 3.28794 9.76813 4.548C3.25851 6.6298 -1.124 13.2791 0.253744 20.6376C1.27013 26.0656 5.57537 30.4969 10.9667 31.6644C11.9995 31.888 13.0354 32 14.0643 32C14.7663 32 15.4652 31.9478 16.1575 31.8434C17.6536 31.6179 18.8811 30.572 19.3608 29.1141C19.8557 27.6104 19.4739 25.9873 18.3642 24.8778C17.6315 24.146 17.631 22.9599 18.3644 22.2273C19.0976 21.4944 20.2828 21.4943 21.0161 22.2273C22.1247 23.3356 23.7454 23.7175 25.2454 23.2242C26.7017 22.7452 27.7467 21.5179 27.9725 20.0212C28.4694 16.729 27.8087 13.1267 25.7548 10.072C27.403 8.51593 29.3803 6.33468 30.6649 4.45137ZM29.9042 2.07118C29.4474 3.02893 28.5197 4.2533 27.849 5.07567L26.8264 4.05343C27.6798 3.38549 28.9067 2.50687 29.9042 2.07118ZM24.6594 21.4456C25.4514 21.1851 25.9969 20.5489 26.1183 19.7437C26.531 17.0091 26.0249 13.965 24.3448 11.3432C23.1058 12.4035 21.5653 13.5714 20.2507 14.1149C20.6839 15.4196 20.3832 16.9166 19.3464 17.9529C18.1776 19.1214 16.6236 19.7649 14.9706 19.7649C13.3177 19.7649 11.7636 19.1214 10.5948 17.9529L10.3296 17.6879C10.0806 17.439 9.99211 17.0717 10.1004 16.7368C10.2087 16.4019 10.4955 16.1559 10.8431 16.0997C11.9292 15.9243 12.8147 15.1918 13.0988 14.2337C13.2752 13.6389 13.6014 13.0914 14.0425 12.6506C15.0379 11.6555 16.4582 11.3386 17.7251 11.6983C18.2499 10.3786 19.4283 8.8177 20.5026 7.56014C19.2559 6.79046 17.8667 6.24933 16.4294 5.9804C7.83774 4.37265 0.490355 11.7134 2.09718 20.2948C2.97652 24.9909 6.70051 28.8245 11.3639 29.8342C12.8782 30.1622 14.3969 30.2152 15.878 29.9918C16.6823 29.8705 17.3184 29.3242 17.5797 28.5303C17.7932 27.8815 17.7632 26.9302 17.0386 26.2059C15.5721 24.741 15.5726 22.3681 17.0388 20.9036C18.5007 19.442 20.8801 19.4421 22.3422 20.9038C23.0659 21.6272 24.0137 21.6579 24.6594 21.4456ZM18.0198 16.6256C17.2051 17.44 16.1221 17.8885 14.9699 17.8885C14.2146 17.8885 13.4888 17.6957 12.849 17.3333C13.8306 16.754 14.5758 15.8444 14.896 14.7647C14.9851 14.4642 15.1439 14.1983 15.3678 13.9744C16.0989 13.2435 17.2887 13.2435 18.0198 13.9744C18.7459 14.7005 18.7551 15.8906 18.0198 16.6256ZM19.4557 12.414C19.8037 12.2757 20.355 11.9962 21.1749 11.4321C23.0769 10.1233 25.0562 8.23168 26.6229 6.49975L25.3806 5.25781C23.6673 6.77218 21.7175 8.83706 20.4379 10.6954C19.8736 11.515 19.5941 12.0661 19.4557 12.414Z" fill="#25B29D"/>
</svg>
