<svg width="26" height="26" viewBox="0 0 26 26" fill="none" xmlns="http://www.w3.org/2000/svg">
<path d="M15.2994 13.0003L25.5236 2.77567C26.1588 2.14097 26.1588 1.11113 25.5236 0.476433C24.8884 -0.158811 23.8597 -0.158811 23.2244 0.476433L13.0003 10.701L2.77555 0.476433C2.14033 -0.158811 1.11163 -0.158811 0.476413 0.476433C-0.158804 1.11113 -0.158804 2.14097 0.476413 2.77567L10.7011 13.0003L0.476413 23.2249C-0.158804 23.8596 -0.158804 24.8894 0.476413 25.5241C0.794021 25.8412 1.21027 26 1.62598 26C2.04169 26 2.45794 25.8412 2.77555 25.5236L13.0003 15.299L23.2244 25.5236C23.5421 25.8412 23.9583 26 24.374 26C24.7897 26 25.206 25.8412 25.5236 25.5236C26.1588 24.8889 26.1588 23.859 25.5236 23.2243L15.2994 13.0003Z" fill="#FC4A1A"/>
</svg>
